^C:\USERS\KALMÁR PÉTER\SOURCE\REPOS\CONSOLEENGINE\CONSOLEENGINE\DEBUG\BMP_IMAGE.OBJ|C:\USERS\KALMÁR PÉTER\SOURCE\REPOS\CONSOLEENGINE\CONSOLEENGINE\DEBUG\BUTTON.OBJ|C:\USERS\KALMÁR PÉTER\SOURCE\REPOS\CONSOLEENGINE\CONSOLEENGINE\DEBUG\COLOR.OBJ|C:\USERS\KALMÁR PÉTER\SOURCE\REPOS\CONSOLEENGINE\CONSOLEENGINE\DEBUG\CONSOLE.OBJ|C:\USERS\KALMÁR PÉTER\SOURCE\REPOS\CONSOLEENGINE\CONSOLEENGINE\DEBUG\CONSOLEENGINE.OBJ|C:\USERS\KALMÁR PÉTER\SOURCE\REPOS\CONSOLEENGINE\CONSOLEENGINE\DEBUG\IMAGE.OBJ|C:\USERS\KALMÁR PÉTER\SOURCE\REPOS\CONSOLEENGINE\CONSOLEENGINE\DEBUG\PROGRESSBAR.OBJ|C:\USERS\KALMÁR PÉTER\SOURCE\REPOS\CONSOLEENGINE\CONSOLEENGINE\DEBUG\STDAFX.OBJ|C:\USERS\KALMÁR PÉTER\SOURCE\REPOS\CONSOLEENGINE\CONSOLEENGINE\DEBUG\UTIL.OBJ|C:\USERS\KALMÁR PÉTER\SOURCE\REPOS\CONSOLEENGINE\CONSOLEENGINE\DEBUG\WINDOW.OBJ
C:\USERS\KALMáR PéTER\SOURCE\REPOS\CONSOLEENGINE\DEBUG\CONSOLEENGINE.EXE
C:\USERS\KALMáR PéTER\SOURCE\REPOS\CONSOLEENGINE\DEBUG\CONSOLEENGINE.ILK
C:\USERS\KALMÁR PÉTER\SOURCE\REPOS\CONSOLEENGINE\DEBUG\CONSOLEENGINE.PDB
